%YAML 1.1
%TAG !u! tag:unity3d.com,2011:
--- !u!114 &11400000
MonoBehaviour:
  m_ObjectHideFlags: 0
  m_CorrespondingSourceObject: {fileID: 0}
  m_PrefabInternal: {fileID: 0}
  m_GameObject: {fileID: 0}
  m_Enabled: 1
  m_EditorHideFlags: 0
  m_Script: {fileID: 11500000, guid: 8380145b722864ecbb314320ac7242c3, type: 3}
  m_Name: LazyRush
  m_EditorClassIdentifier: 
  IsCollectable: 0
  IsSelectable: 0
  UsedOnRunners: 0
  PowerUpType: 4
  PowerUpSprite: {fileID: 0}
