%YAML 1.1
%TAG !u! tag:unity3d.com,2011:
--- !u!1045 &1
EditorBuildSettings:
  m_ObjectHideFlags: 0
  serializedVersion: 2
  m_Scenes:
  - enabled: 1
    path: Assets/Scenes/menu.unity
    guid: 07dacfad501c9cb4c9b32d3b63edf0df
  - enabled: 1
    path: Assets/Scenes/Gameplay.unity
    guid: 620fda2b47e1eb54793056e1b82f79b4
  m_configObjects: {}
